            onu_addr,          time_stamp,            sfp_temp,             sfp_vcc,         sfp_tx_bias,          sfp_tx_pwr,          sfp_rx_pwr,   stk_mgt_tx_nready,   stk_mgt_rx_nready, stk_mgt_txpll_nlock, stk_mgt_rxpll_nlock,        stk_rx_nlock,     stk_phase_ngood,stk_dn_fec_serr_corr,stk_dn_fec_derr_corr,stk_dn_sc_crc_errdet,dn_fec_serr_corr_cnt,dn_fec_derr_corr_cnt,dn_sc_crc_errdet_cnt, stk_up_8b10b_errdet
                   2,     1584094890.6387,             39.4219,              3.2519,             13.0000,              4.4699,            -13.7263,                   0,                   0,                   0,                   0,                   0,                   0,                   0,                   0,                   0,                   0,                   0,                   0,                   0
                   2,     1584095978.7349,             39.4219,              3.2519,             13.0000,              4.4699,            -13.7263,                   0,                   0,                   0,                   0,                   0,                   0,                   0,                   0,                   0,                   0,                   0,                   0,                   0
                   2,     1584096190.8072,             39.4219,              3.2519,             13.0500,              4.4803,            -13.7263,                   0,                   0,                   0,                   0,                   0,                   0,                   0,                   0,                   0,                   0,                   0,                   0,                   0
                   2,     1584097176.7971,             39.4219,              3.2519,             13.0500,              4.4699,            -13.7263,                   0,                   0,                   0,                   0,                   0,                   0,                   0,                   0,                   0,                   0,                   0,                   0,                   0
                   2,     1584102211.8627,             40.1406,              3.2519,             13.2000,              4.4803,            -13.6552,                   0,                   0,                   0,                   0,                   0,                   0,                   0,                   0,                   0,                   0,                   0,                   0,                   0
                   2,     1584109405.3403,             39.4219,              3.2519,             13.0000,              4.4699,            -13.7263,                   0,                   0,                   0,                   0,                   0,                   0,                   0,                   0,                   0,                   0,                   0,                   0,                   0
                   2,     1584120680.9588,             39.4219,              3.2519,             13.0500,              4.4699,            -13.7263,                   0,                   0,                   0,                   0,                   0,                   0,                   0,                   0,                   0,                   0,                   0,                   0,                   0
                   2,     1584348499.0222,             37.6250,              3.2519,             12.5500,              4.4905,            -13.4294,                   0,                   0,                   0,                   0,                   0,                   0,                   0,                   0,                   0,                   0,                   0,                   0,                   0
